{
   "commands":[
      {
         "sno":"sno_osn",
         "type":"sale",
         "lines":[
            {
               "ppr":"goods",
               "psr":"prepayment_100",
               "tax":"vat_none",
               "price":50000,
               "title":"Телевизор",
               "total":50000,
               "quantity":1,
               "tagTrueSign": "46198488"
            }
         ],
         "amountCash": 30000,
         "amountElectronic": 20000,
         "amountPrepaid": 0,
         "amountCredit":  0,
         "amountIncoming": 0,
         "isPrintable":true,
         "tagCashierINN":"123456789047",
         "tagCashierName":"Кассирыч Кассир Кассович",
         "tagClientContact":"xxxxxxxxxxxxxxxx@mail.ru",
         "tagSaleLocation":"магазин №1 Адрес магазина"
         
      }
   ],
   "creItemId_atol":"89189775-e4fc-70d0-5e2c-182e4121308e",
   "creItemId":"9366f6f6-cba1-7826-5d9f-59c176822a6c"

}
